0,38.64,54.6
1,38.64,49.14
2,38.64,44.23
3,38.64,39.8
4,38.64,35.82
5,35.91,32.24
6,32.32,29.65
7,29.09,27.61
8,26.18,26.87
9,23.56,26.16
10,21.2,24.38
11,19.08,22.32
12,17.54,20.27
13,17.12,19.74
14,17.5,19.26
15,18.29,18.83
16,18.78,18.62
17,19.31,18.62
18,17.74,18.62
19,17.38,18.62
20,18.18,18.62
21,19.05,18.62
22,19.05,18.62
23,18.09,18.62
24,17.17,18.62
25,16.96,18.62
26,18.08,18.62
27,18.75,18.62
28,19.11,18.62
29,17.19,19.36
30,16.5,20.18
31,16.02,20.18
32,16.49,19.28
33,17.21,18.84
34,18.0,18.64
35,18.31,18.64
36,18.65,18.64
37,17.72,18.82
38,17.7,19.02
39,18.17,19.23
40,18.5,19.47
41,18.5,20.1
42,18.5,19.81
43,18.5,19.51
44,18.5,19.47
45,18.5,19.48
46,18.5,19.72
47,18.5,19.99
48,18.5,20.28
49,18.5,19.96
50,18.5,19.67
51,18.5,19.41
52,18.5,19.18
53,18.5,18.97
54,18.5,18.97
55,18.5,18.97
56,18.5,18.97
57,18.5,18.97
58,18.5,18.97
59,18.5,18.97
60,18.5,18.97
61,18.5,18.97
62,18.5,18.97
63,18.5,18.97
64,18.5,18.97
65,18.5,18.97
66,18.5,18.97
67,18.5,18.97
68,18.5,18.97
69,18.5,18.97
70,18.5,18.97
71,18.5,18.97
72,18.5,18.97
73,18.5,18.97
74,18.5,18.97
75,18.5,18.97
76,18.5,18.97
77,18.5,18.97
78,18.5,18.97
79,18.5,18.97
80,18.5,18.97
81,18.5,18.97
82,18.5,18.97
83,18.5,18.97
84,18.5,18.97
85,18.5,18.97
86,18.5,18.97
87,18.5,18.97
88,18.5,18.97
89,18.5,18.97
90,18.5,18.97
91,18.5,18.97
92,18.5,18.97
93,18.5,18.97
94,18.5,18.97
95,18.5,18.97
96,18.5,18.97
97,18.5,18.97
98,18.5,18.97
99,18.5,18.97
100,18.5,18.97
101,18.5,18.97
102,18.5,18.97
103,18.5,18.97
104,18.5,18.97
105,18.5,18.97
106,18.5,18.97
107,18.5,18.97
108,18.5,18.97
109,18.5,18.97
110,18.5,18.97
111,18.5,18.97
112,18.5,18.97
113,18.5,18.97
114,18.5,18.97
115,18.5,18.97
116,18.5,18.97
117,18.5,18.97
118,18.5,18.97
119,18.5,18.97
120,18.5,18.97
121,18.5,18.97
122,18.5,18.97
123,18.5,18.97
124,18.5,18.97
125,18.5,18.97
126,18.5,18.97
127,18.5,18.97
128,18.5,18.97
129,18.5,18.97
130,18.5,18.97
131,18.5,18.97
132,18.5,18.97
133,18.5,18.97
134,18.5,18.97
135,18.5,18.97
136,18.5,18.97
137,18.5,18.97
138,18.5,18.97
139,18.5,18.97
140,18.5,18.97
141,18.5,18.97
142,18.5,18.97
143,18.5,18.97
144,18.5,18.97
145,18.5,18.97
146,18.5,18.97
147,18.5,18.97
148,18.5,18.97
149,18.5,18.97
